//h = 0.025;
h = 0.0125;
Point(1) = {0, 0, 0, h};
Point(2) = {0, 1, 0, h};
Point(3) = {1, 0, 0, h};
Point(4) = {1, 1, 0, h};

Point(5) = {0.1, 0.9, 0, h};
Point(6) = {0.1, 0.9, 0, h};
Point(7) = {0.2, 0.7, 0, h};
Point(8) = {0.1, 0.5, 0, h};
Point(9) = {0.1, 0.3, 0, h};
Point(10) = {0.4, 0, 0, h};
Point(11) = {0.7, -0.2, 0, h};
Point(12) = {1.1, 0.4, 0, h};
Point(13) = {0.9, 0.6, 0, h};

Point(15) = {0.7, 1.1, 0, h};
Point(16) = {0.6, 1, 0, h};
Point(17) = {0.4, 1, 0, h};
Point(18) = {0.5, 0.6, 0, h};
Point(19) = {0.4, 0.4, 0, h};
Point(20) = {0.5, 0.3, 0, h};
Point(21) = {0.7, 0.3, 0, h};
Point(22) = {0.7, 0.5, 0, h};
Point(23) = {0.6, 0.6, 0, h};

Line(1) = {2, 5};
Line(2) = {7, 5};
Line(3) = {7, 8};
Line(4) = {8, 9};
Line(5) = {9, 1};
Line(6) = {1, 10};
Line(7) = {10, 11};
Line(8) = {11, 3};
Line(9) = {3, 12};
Line(10) = {12, 13};
Line(11) = {13, 4};
Line(12) = {4, 15};
Line(13) = {15, 16};
Line(14) = {16, 17};
Line(15) = {17, 2};
Line(16) = {18, 23};
Line(17) = {18, 19};
Line(18) = {19, 20};
Line(19) = {20, 21};
Line(20) = {21, 22};
Line(21) = {22, 23};
Line Loop(22) = {14, 15, 1, -2, 3, 4, 5, 6, 7, 8, 9, 10, 11, 12, 13};
Line Loop(23) = {16, -21, -20, -19, -18, -17};
Plane Surface(24) = {22, 23};


Physical Line(1) = {1, 2, 3, 4, 5, 6, 7};
Physical Line(2) = {8, 9, 10};
Physical Line(3) = {11, 12, 13, 14, 15};
Physical Line(4) = {16, 17, 18, 19, 20, 21};
Physical Surface(5) = {24};
